…
``` r
raw_dfs <- map(.x = urls, .f = build_df)
```

Inspect Scrape Results
======================

Here's the first element of `raw_dfs`:

``` r
raw_dfs[[1]]
```

    ## $result
    ## # A tibble: 38 x 15
    ##    `Time (CDT)` Temp.   `Heat Index` `Dew Point` Humidity Pressure
    ##    <chr>        <chr>   <chr>        <chr>       <chr>    <chr>   
    ##  1 10:30 AM     73.4 °F -            64.4 °F     73%      30.05 in
    ##  2 11:10 AM     75.2 °F -            64.4 °F     69%      30.05 in
    ##  3 11:30 AM     77.0 °F -            64.4 °F     65%      30.05 in
    ##  4 11:50 AM     78.8 °F -            64.4 °F     61%      30.05 in
    ##  5 12:10 PM     78.8 °F -            62.6 °F     57%      30.05 in
    ##  6 12:30 PM     78.8 °F -            62.6 °F     57%      30.04 in
    ##  7 12:50 PM     80.6 °F 81.8 °F      62.6 °F     54%      30.03 in
    ##  8 1:10 PM      80.6 °F 81.8 °F      62.6 °F     54%      30.04 in
    ##  9 1:30 PM      82.4 °F 83.4 °F      62.6 °F     51%      30.03 in
    ## 10 2:10 PM      82.4 °F 83.4 °F      62.6 °F     51%      30.03 in
    ## # ... with 28 more rows, and 9 more variables: Visibility <chr>, `Wind
    ## #   Dir` <chr>, `Wind Speed` <chr>, `Gust Speed` <chr>, Precip <chr>,
    ## #   Events <lgl>, Conditions <chr>, date <date>, url <chr>
    ## 
    ## $error
    ## NULL
…
We can take a look at our `time` column like so:

``` r
raw_df_clean_tz %>% 
  select(time)
```

    ## # A tibble: 354,367 x 1
    ##    time    
    ##    <chr>   
    ##  1 10:30 AM
    ##  2 11:10 AM
    ##  3 11:30 AM
    ##  4 11:50 AM
    ##  5 12:10 PM
    ##  6 12:30 PM
    ##  7 12:50 PM
    ##  8 01:10 PM
    ##  9 01:30 PM
    ## 10 02:10 PM
    ## # ... with 354,357 more rows
…
And here are the resulting values:

``` r
raw_df_clean_wind %>% 
  select(wind_speed, wind_dir)
```

    ## # A tibble: 354,367 x 2
    ##    wind_speed wind_dir
    ##         <dbl> <chr>   
    ##  1        6.9 WSW     
    ##  2        8.1 WSW     
    ##  3        5.8 SW      
    ##  4        6.9 WSW     
    ##  5        8.1 WSW     
    ##  6        8.1 West    
    ##  7        5.8 WSW     
    ##  8        6.9 WSW     
    ##  9        4.6 WSW     
    ## 10        5.8 SW      
    ## # ... with 354,357 more rows
…
And here are the resulting values:

``` r
raw_df_clean_temp %>% 
  select(temp)
```

    ## # A tibble: 354,367 x 1
    ##     temp
    ##    <dbl>
    ##  1  73.4
    ##  2  75.2
    ##  3  77  
    ##  4  78.8
    ##  5  78.8
    ##  6  78.8
    ##  7  80.6
    ##  8  80.6
    ##  9  82.4
    ## 10  82.4
    ## # ... with 354,357 more rows
…
